{
    "Categories": "Qt;KDE;X-KDE-settings-looknfeel;",
    "KPlugin": {
        "Description": "Configure window actions and behavior",
        "Description[ar]": "اضبط سلوك النوافذ وإجراءاتها",
        "Description[ca@valencia]": "Configura les accions i comportament de les finestres",
        "Description[ca]": "Configura les accions i comportament de les finestres",
        "Description[es]": "Configurar las acciones y el comportamiento de las ventanas",
        "Description[fr]": "Configurer les actions et le comportement des fenêtres",
        "Description[id]": "Konfigurasikan perilaku dan aksi window",
        "Description[it]": "Configura azioni e comportamento delle finestre",
        "Description[ko]": "창 동작과 행동 설정",
        "Description[nl]": "Vensteracties en gedrag configureren",
        "Description[pl]": "Ustawienia działań i zachowań okien",
        "Description[pt]": "Configurar as acções e comportamento das janelas",
        "Description[pt_BR]": "Configure as ações e comportamento das janelas",
        "Description[sk]": "Nastaviť akcie a správanie okien",
        "Description[sl]": "Konfiguriraj dejavnosti in obnašanje oken",
        "Description[sv]": "Anpassa fönsteråtgärder och beteende",
        "Description[ta]": "சாளர நடத்தையையும் செயல்களையும் அமையுங்கள்",
        "Description[tr]": "Pencere eylemlerini ve davranışını yapılandır",
        "Description[uk]": "Налаштовування реакції та поведінки вікон",
        "Description[vi]": "Cấu hình các hành động và ứng xử của cửa sổ",
        "Description[x-test]": "xxConfigure window actions and behaviorxx",
        "Description[zh_CN]": "配置窗口操作和行为",
        "Icon": "preferences-system-windows-actions",
        "Name": "Window Behavior",
        "Name[ar]": "سلوك النوافذ",
        "Name[ca@valencia]": "Comportament de les finestres",
        "Name[ca]": "Comportament de les finestres",
        "Name[es]": "Comportamiento de las ventanas",
        "Name[fr]": "Comportement des fenêtres",
        "Name[id]": "Perilaku Window",
        "Name[it]": "Comportamento delle finestre",
        "Name[ko]": "창 동작",
        "Name[nl]": "Venstergedrag",
        "Name[pl]": "Zachowania okien",
        "Name[pt]": "Comportamento das Janelas",
        "Name[pt_BR]": "Comportamento das janelas",
        "Name[sk]": "Správanie okien",
        "Name[sl]": "Obnašanje oken",
        "Name[sv]": "Fönsterbeteende",
        "Name[ta]": "சாளர நடத்தை",
        "Name[tr]": "Pencere Davranışı",
        "Name[uk]": "Поведінка вікон",
        "Name[vi]": "Ứng xử của cửa sổ",
        "Name[x-test]": "xxWindow Behaviorxx",
        "Name[zh_CN]": "窗口行为",
        "ServiceTypes": [
            "KCModule"
        ]
    },
    "X-DocPath": "kcontrol/windowbehaviour/index.html",
    "X-KDE-Keywords": "focus,placement,window behavior,window actions,animation,raise,auto raise,windows,frame,titlebar,doubleclick,desktop,snap,movement,shading,shade,unshade,unshading,activation,activate",
    "X-KDE-Keywords[ar]": "تركيز,سلوك,سلوك النوافذ,إجراءات,إجراء,تظليل,تفعيل,تنشيط,تحريك,سطح مكتب,إطار,نقر,نقر مزدوج",
    "X-KDE-Keywords[az]": "focus,placement,window behavior,window actions,animation,raise,auto raise,windows,frame,titlebar,doubleclick,desktop,snap,movement,shading,shade,unshade,unshading,activation,activate,yerdəyişmə,pəncərə davranışları,pəncərə fəaliyyəti,animasiya,yüksəlmə,avtomatik yüksəlmə,pəncərələr,çərçivə,başlıq çubuğu,ikili vuruş,iş masası,ani,hərəkət,kölgələnmə,kölgə,kölgəsiz, kölgəsizləşmə,aktivləşmə,aktiv etmək",
    "X-KDE-Keywords[ca@valencia]": "focus,emplaçament,comportament de la finestra,accions de la finestra,animació,elevació,elevació automàtica,finestres,marc,barra de títol,doble clic,escriptori,ajust,moviment,ombreig,ombra,shading,shade,unshading,activació,activar",
    "X-KDE-Keywords[ca]": "focus,emplaçament,comportament de la finestra,accions de la finestra,animació,elevació,elevació automàtica,finestres,marc,barra de títol,doble clic,escriptori,ajust,moviment,ombreig,ombra,shading,shade,unshading,activació,activar",
    "X-KDE-Keywords[en_GB]": "focus,placement,window behaviour,window actions,animation,raise,auto raise,windows,frame,titlebar,doubleclick,desktop,snap,movement,shading,shade,unshade,unshading,activation,activate",
    "X-KDE-Keywords[es]": "foco,posicionamiento,comportamiento de las ventanas,acciones de las ventanas,animación,elevación,autoelevación,ventanas,marco,barra de título,doble clic,escritorio,ajuste,movimiento,sombreado,sombra,activación,activar",
    "X-KDE-Keywords[fi]": "kohdistus,fokus,sijoittelu,sijoitus,ikkunoiden toiminta,ikkunoiden toiminnot,ikkunatoiminnot,animaatio,nosta,automaattinen nosto,ikkunat,kehys,otsikkorivi,otsikkopalkki,työpöytä,snap,kiinnitys,rullaus,rullaa,varjostus,aktivointi,aktivoi",
    "X-KDE-Keywords[fr]": "focus, placement, comportement de la fenêtre, actions sur les fenêtres, animation, agrandissement, agrandissement automatique, fenêtres, cadre, barre de titre, double clic, bureau, snap, déplacement, ombrage, ombre, supprimer l'ombre, supprimer l'ombrage, activation, activer",
    "X-KDE-Keywords[hu]": "fókusz,elhelyezés,ablakműködés,ablakműveletek,animáció,felemelés,automatikus felemelés,ablakok,keret,címsor,dupla kattintás,asztal,igazítás,mozgás,árnyákolás,árnyék,világosít,világosítás,aktiválás,aktivál",
    "X-KDE-Keywords[ia]": "focus,placiamento,comportamento de fenestra,actiones de fenestra,animation,altiar,auto altiar,fenestras,quadro,barra de titulo,duple click,scriptorio, snap, movemento, umbrar, umbra,de umbra,deumbrar,activation,activar",
    "X-KDE-Keywords[id]": "fokus,penempatan,perilaku window,aksi window,animasi,naikkan,naikkan otomatis,window,bingkai,titlebar,klik ganda,desktop,snap,gerakan,shading,shade,unshade,unshading,aktivasi,aktifkan",
    "X-KDE-Keywords[it]": "fuoco,posizionamento,comportamento della finestra,azioni delle finestre,animazione,sollevamento,sollevamento automatico,finestre,riquadro,barra del titolo,doppio clic,desktop,snap,movimento,arrotolare,arrotola,srotola,srotolare,attivazione,attivare",
    "X-KDE-Keywords[ko]": "focus,placement,window behavior,window actions,animation,raise,auto raise,windows,frame,titlebar,doubleclick,desktop,snap,movement,shading,shade,unshade,unshading,activation,activate,초점,위치,창 행동,애니메이션,올리기,창,프레임,제목 표시줄,바탕 화면,데스크톱,이동,말아 올리기,풀어 내리기,활성화,활성,클릭,두 번 클릭",
    "X-KDE-Keywords[nl]": "focus,plaatsing,venstegedrag,vensteracties,animatie,omhoog,automatisch omhoog,vensters,frame,titelbalk,dubbelklik,bureaublad,vastklikken,verplaatsen,schaduw maken,schaduw,geen schaduw,schaduw ongedaan maken,activatie,activeren",
    "X-KDE-Keywords[nn]": "fokus,plassering,vindaugsåtferd,vindaugshandlingar,animering,hev,autohev,vindauge,ramme,tittellinje,dobbeltklikk,skrivebord,flytting,rørsle,opprulling,nedrulling,gøyming,aktivering,aktivera",
    "X-KDE-Keywords[pl]": "uaktywnienie,umieszczenie,zachowanie okna,działania okien,animacja,wzniesienie,auto-wzniesienie, okna,ramka,pasek tytułu,podwójne kliknięcie,pulpit,snap,ruch,przyciemnianie,zwijanie,rozwijanie,rozwijanie,uaktywnianie,aktywowanie",
    "X-KDE-Keywords[pt]": "foco,colocação,comportamento da janela,acções das janelas,animação,elevar,elevar automaticamente,janelas,contorno,barra de título,duplo-click,ecrã,ajuste,movimento,enrolamento,desenrolamento,activação,activar",
    "X-KDE-Keywords[pt_BR]": "foco,colocação,comportamento da janela,ações da janela,animação,elevar,elevar automaticamente,janelas,contorno,barra de título,clique duplo,área de trabalho,snap,movimento,sombreamento,sombra,dessombrear,sem sombra, ativação,ativar",
    "X-KDE-Keywords[ru]": "focus,placement,window behavior,window actions,animation,raise,auto raise,windows,frame,titlebar,doubleclick,desktop,snap,movement,shading,shade,unshade,unshading,activation,activate,фокус,местоположение,поведение окон,анимация,увеличение,автоувеличение,окна,рамка,заголовок,двойной щелчок,действия над окнами,привязка,перемещение,затемнение,активация",
    "X-KDE-Keywords[sl]": "fokus,žarišče,postavitev,postavljanje,obnašanje oken,dejanja oken,animacija,dvig,samodejni dvig,okna,okvir,naslovna vrstica,dvojni klik,dvoklik,namizje,posnetek,senca, razsenčenje,aktivacija,zagon dejavnosti",
    "X-KDE-Keywords[sv]": "fokus,placering,fönsterbeteende,animering,höj,höj automatiskt,fönster,ram,namnlist,dubbelklick,skrivbord,lås,förflyttning,skuggning,skugga,aktivering,aktivera",
    "X-KDE-Keywords[ta]": "focus,placement,window behavior,window actions,animation,raise,auto raise,windows,frame,titlebar,doubleclick,desktop,snap,movement,shading,shade,unshade,unshading,activation,activate, குவியம், குவிப்பு, சாளர நடத்தை, சாளரம், சாளர செயல்கள், அசைவூட்டம், உயர்த்து, முன்கொணர், சாளரங்கள், விளிம்பு, தலைப்புப்பட்டை, பணிமேடை, நகர்த்தல், நகற்று, நகர்வது, நிழல், செயல்படுத்து",
    "X-KDE-Keywords[tr]": "odak,yerleşim,pencere davranışı,pencere eylemleri,canlandırma,yükselt,otomatik yükselt,pencereler,çerçeve,başlık çubuğu,çift tıklama,masaüstü,yapıştır,hareket,gölgelendirme,gölgele,gölgeyi kaldır,etkinleştirme,etkinleştir",
    "X-KDE-Keywords[uk]": "focus,placement,window behavior,window actions,animation,raise,auto raise,windows,frame,titlebar,doubleclick,desktop,snap,movement,shading,shade,unshade,unshading,activation,activate,фокус,розташування,місце,вікно,поведінка,поведінка вікон,дії,реакція,дії з вікнами,реакція вікон,анімація,підняти,підняття,автоматична,автоматично,рамка,заголовок,смужка заголовка,клацання,подвійне,стільниця,прилипання,рух,затінення,тінь,розтінення,розгортання,згортання,активація,активувати",
    "X-KDE-Keywords[vi]": "focus,placement,window behavior,window actions,animation,raise,auto raise,windows,frame,titlebar,doubleclick,desktop,snap,movement,shading,shade,unshade,unshading,activation,activate,nhắm,xếp chỗ,ứng xử của cửa sổ,hành động của cửa sổ,hiệu ứng động,nâng,nâng tự động,cửa sổ,khung,thanh tiêu đề,bấm đúp,bàn làm việc,đính,chuyển động,che,bỏ che,kích hoạt",
    "X-KDE-Keywords[x-test]": "xxfocusxx,xxplacementxx,xxwindow behaviorxx,xxwindow actionsxx,xxanimationxx,xxraisexx,xxauto raisexx,xxwindowsxx,xxframexx,xxtitlebarxx,xxdoubleclickxx,xxdesktopxx,xxsnapxx,xxmovementxx,xxshadingxx,xxshadexx,xxunshadexx,xxunshadingxx,xxactivationxx,xxactivatexx",
    "X-KDE-Keywords[zh_CN]": "focus,placement,window behavior,window actions,animation,raise,auto raise,windows,frame,titlebar,doubleclick,desktop,snap,movement,shading,shade,unshade,unshading,activation,activate,焦点,放置,位置,窗口行为,窗口操作,动画,提升,自动提升,窗口,框架,标题栏,双击,桌面,吸附,移动,卷起,展开,激活",
    "X-KDE-ParentApp": "kcontrol",
    "X-KDE-System-Settings-Parent-Category": "windowmanagement",
    "X-KDE-Weight": 40
}
